id,label,fullname,slug,size,icon,parents,filter-tipo-de-ator,filter-modalidades,filter-publico-ou-tipo-de-territorio-com-o-qual-trabalha-ou-o-qual-representa,filter-arenas-ou-articulacoes-das-quais-participa,filter-programas-em-que-participa-da-execucao,filter-ator-do-qual-faz-parte,filter-fontes-de-recursos-do-programa
1,SAÚDE,"Ministério da Saúde",ministerio-da-saude,0,ministerio,78,0,-1,0,-1,-1,0,-1
2,FUNASA,"Fundação Nacional de Saúde",fundacao-nacional-de-saude,0,secretaria-ministerial,119|1,1,-1,0,-1,0,1,-1
3,SESAI,"Secretaria Especial da Saúde Indígena",secretaria-especial-da-saude-indigena,0,secretaria-ministerial,1,1,-1,1,-1,-1,1,-1
6,SGEP,"Secretaria de Gestão Estratégica e Participativa",secretaria-de-gestao-estrategica-e-participativa,0,secretaria-ministerial,1,1,-1,0,-1,-1,1,-1
7,MDS,"Ministério do Desenvolvimento Social e Combate à Fome",ministerio-do-desenvolvimento-social-e-combate-a-fome,0,ministerio,119|78,0,-1,0,-1,0,0,-1
9,MMA,"Ministério do Meio Ambiente",ministerio-do-meio-ambiente,0,ministerio,119|78,0,-1,0,-1,0,0,-1
14,"ANA GOV","Agência Nacional de Águas",agencia-nacional-de-aguas,0,agencia-de-regulacao,9,2,-1,0,-1,-1,2,-1
15,MI,"Ministério da Integração Nacional",ministerio-da-integracao-nacional,0,ministerio,78,0,-1,0,-1,-1,0,-1
16,CODEVASF,CODEVASF,codevasf,0,empresa-publica,15,3,-1,2,-1,-1,3,-1
18,MDA,"Secretaria Especial de Agricultura Familiar e do Desenvolvimento Agrário",secretaria-especial-de-agricultura-familiar-e-do-desenvolvimento-agrario,0,secretaria-ministerial,62,1,-1,-1,-1,-1,4,-1
19,INCRA,"Instituto Nacional de Colonização e Reforma Agrária",instituto-nacional-de-colonizacao-e-reforma-agraria,0,autarquia-federal,18,4,-1,3,-1,-1,5,-1
20,MAPA,"Ministério da Agricultura, Pecuária e Abastecimento",ministerio-da-agricultura-pecuaria-e-abastecimento,0,ministerio,78,0,-1,-1,-1,-1,0,-1
21,EMBRAPA,"Empresa Brasileira de Pesquisa Agropecuária",empresa-brasileira-de-pesquisa-agropecuaria,0,empresa-publica,20,3,-1,-1,-1,-1,6,-1
25,"Min. Cidades","Ministério das Cidades",ministerio-das-cidades,0,ministerio,78,0,-1,-1,-1,-1,0,-1
26,SNSA,"Secretaria Nacional de Saneamento Ambiental",secretaria-nacional-de-saneamento-ambiental,0,secretaria-ministerial,25,1,-1,-1,-1,-1,7,-1
27,SNH,"Secretaria Nacional de Habitação",secretaria-nacional-de-habitacao,0,secretaria-ministerial,25,1,-1,-1,-1,-1,7,-1
46,ANVISA,"Agência Nacional de Vigilância Sanitária",agencia-nacional-de-vigilancia-sanitaria,0,agencia-de-regulacao,1,2,-1,-1,-1,-1,1,-1
47,FIOCRUZ,"Fundação Oswaldo Cruz",fundacao-oswaldo-cruz,0,academia,85|1,5,-1,-1,0,-1,1,-1
48,UnB,"Universidade de Brasília",universidade-de-brasilia,0,academia,85,5,-1,-1,0,-1,-1,-1
62,"CASA CIVIL","Casa Civil",casa-civil,0,ministerio,78,0,-1,-1,-1,-1,0,-1
63,CONAB,"Companhia Nacional de Abastecimento",companhia-nacional-de-abastecimento,0,empresa-publica,20,3,-1,-1,-1,-1,6,-1
69,CTAO,"Câmara Temática de Agricultura Orgânica",camara-tematica-de-agricultura-organica,0,governo-federal,20,6,-1,-1,-1,-1,6,-1
73,BID,"Banco Mundial",banco-mundial,0,banco-de-fomento,,7,-1,-1,-1,-1,-1,-1
74,KfW,"KfW Bankengruppe",kf-w-bankengruppe,0,banco-de-fomento,,7,-1,-1,-1,-1,-1,-1
78,"Governo Federal","Governo Federal",governo-federal,0,governo-federal,111,6,-1,-1,-1,-1,8,-1
81,CONDRAF,"Conselho Nacional de Desenvolvimento Rural Sustentável",conselho-nacional-de-desenvolvimento-rural-sustentavel,0,conselho-social,18,8,-1,-1,-1,-1,5,-1
84,CNAPO,"Comissão Nacional de Agroecologia e Produção Orgânica",comissao-nacional-de-agroecologia-e-producao-organica,0,conselho-social,18,8,-1,-1,-1,-1,5,-1
85,"Grupo da Terra","Grupo da Terra",grupo-da-terra,0,conselho-social,114|6,8,-1,-1,-1,1,9,-1
86,"Conselho das Cidades","Conselho das Cidades",conselho-das-cidades,0,conselho-social,25,8,-1,-1,-1,-1,7,-1
88,CNRH,"Conselho Nacional de Recursos Hídricos",conselho-nacional-de-recursos-hidricos,0,conselho-social,9,8,-1,-1,-1,-1,2,-1
91,PDHC,"Projeto Dom Hélder Câmara",projeto-dom-helder-camara,0,projeto,18,9,-1,-1,-1,-1,5,-1
97,CONSEA,"Conselho Nacional de Segurança Alimentar e Nutricional",conselho-nacional-de-seguranca-alimentar-e-nutricional,0,conselho-social,113,8,-1,-1,-1,-1,10,-1
110,Estados,Estados,estados,0,,111,-1,-1,-1,-1,-1,8,-1
111,Federação,Federação,federacao,0,,,-1,-1,-1,-1,-1,-1,-1
112,"Programa Cisternas","Programa Nacional de Apoio à Captação de Água de Chuva e outras Tecnologias Sociais",programa-nacional-de-apoio-a-captacao-de-agua-de-chuva-e-outras-tecnologias-sociais,0,programa,7,10,-1,-1,-1,-1,11,-1
113,Presidência,"Presidência da República",presidencia-da-republica,0,ministerio,78,0,-1,-1,-1,-1,0,-1
114,PNSR,"Equipe de elaboração do PNSR",equipe-de-elaboracao-do-pnsr,0,programa,2,10,-1,-1,-1,-1,12,-1
115,"DESA UFMG","Departamento de Engenharia Sanitária e Ambiental da UFMG",departamento-de-engenharia-sanitaria-e-ambiental-da-ufmg,0,universidade,114,11,-1,-1,-1,1,-1,-1
116,PNS,"Política Nacional de Saneamento",politica-nacional-de-saneamento,0,politica-publica,25|125,12,0|1|2|3|4,0,-1,-1,7,0
117,PASS-BID,"Programa de Ação Social em Saneamento",programa-de-acao-social-em-saneamento,0,programa,26|73,10,0|1|4,-1,-1,-1,13,1
118,SUAE,"Serviços Urbanos de Água e Esgoto",servicos-urbanos-de-agua-e-esgoto,0,programa,26|124,10,0|1,4,-1,-1,13,2
119,RSU,"Resíduos Sólidos Urbanos",residuos-solidos-urbanos,0,programa,26|124,10,5,5,-1,-1,13,2
120,"Drenagem Urbana Sustentável","Drenagem Urbana Sustentável",drenagem-urbana-sustentavel,0,programa,26|124,10,3,6,-1,-1,13,2
121,PNSICFA,"Política Nacional de Saúde das Pop. do Campo, Floresta e Águas",politica-nacional-de-saude-das-pop-do-campo-floresta-e-aguas,0,programa,6,10,6,7,-1,-1,9,-1
122,"Saneamento para Todos","Saneamento para Todos",saneamento-para-todos,0,programa,26|123,10,0|1|2|3,6,-1,-1,13,3
123,FGTS,"Fundo de Garantia do Tempo de Serviço",fundo-de-garantia-do-tempo-de-servico,0,banco-de-fomento,,7,-1,-1,-1,-1,-1,-1
124,"Orçamento Geral da União","Orçamento Geral da União",orcamento-geral-da-uniao,0,governo-federal,,6,-1,-1,-1,-1,-1,-1
125,"Tesouro Nacional","Tesouro Nacional",tesouro-nacional,0,governo-federal,,6,-1,-1,-1,-1,-1,-1
